# MagicaVoxel @ Ephtracy

# material
mtllib 4.mtl
usemtl palette

# normals
vn -1 0 0
vn 1 0 0
vn 0 0 1
vn 0 0 -1
vn 0 -1 0
vn 0 1 0

# texcoords
vt 0.00976563 0.5
vt 0.0136719 0.5
vt 0.0214844 0.5
vt 0.0292969 0.5
vt 0.0917969 0.5
vt 0.927734 0.5
vt 0.931641 0.5
vt 0.974609 0.5
vt 0.994141 0.5

# verts
v -11.5 8 0.5
v -11.5 8 -0.5
v -11.5 10 0.5
v -11.5 10 -0.5
v -10.5 7 0.5
v -10.5 7 -0.5
v -10.5 8 0.5
v -10.5 8 -0.5
v -10.5 10 0.5
v -10.5 10 -0.5
v -10.5 11 0.5
v -10.5 11 -0.5
v -10.5 12 0.5
v -10.5 12 -0.5
v -9.5 12 0.5
v -9.5 12 -0.5
v -9.5 13 0.5
v -9.5 13 -0.5
v -8.5 13 0.5
v -8.5 13 -0.5
v -8.5 14 0.5
v -8.5 14 -0.5
v -8.5 15 0.5
v -8.5 15 -0.5
v -7.5 15 0.5
v -7.5 15 -0.5
v -7.5 16 0.5
v -7.5 16 -0.5
v -7.5 17 0.5
v -7.5 17 -0.5
v -6.5 17 0.5
v -6.5 17 -0.5
v -6.5 18 0.5
v -6.5 18 -0.5
v -6.5 19 0.5
v -6.5 19 -0.5
v -5.5 19 0.5
v -5.5 19 -0.5
v -5.5 20 0.5
v -5.5 20 -0.5
v -4.5 20 0.5
v -4.5 20 -0.5
v -4.5 21 0.5
v -4.5 21 -0.5
v -4.5 22 0.5
v -4.5 22 -0.5
v -3.5 22 0.5
v -3.5 22 -0.5
v -3.5 23 0.5
v -3.5 23 -0.5
v -3.5 24 0.5
v -3.5 24 -0.5
v -2.5 24 0.5
v -2.5 24 -0.5
v -2.5 25 0.5
v -2.5 25 -0.5
v -1.5 25 0.5
v -1.5 25 -0.5
v -1.5 26 0.5
v -1.5 26 -0.5
v -1.5 27 0.5
v -1.5 27 -0.5
v -0.5 27 0.5
v -0.5 27 -0.5
v -0.5 28 0.5
v -0.5 28 -0.5
v -0.5 29 0.5
v -0.5 29 -0.5
v 0.5 29 0.5
v 0.5 29 -0.5
v 0.5 30 0.5
v 0.5 30 -0.5
v 2.5 0 0.5
v 2.5 0 -0.5
v 2.5 1 0.5
v 2.5 1 -0.5
v 2.5 7 0.5
v 2.5 7 -0.5
v 2.5 10 0.5
v 2.5 10 -0.5
v 2.5 24 0.5
v 2.5 24 -0.5
v -6.5 10 0.5
v -6.5 10 -0.5
v -6.5 11 0.5
v -6.5 11 -0.5
v -5.5 11 0.5
v -5.5 11 -0.5
v -5.5 12 0.5
v -5.5 12 -0.5
v -5.5 13 0.5
v -5.5 13 -0.5
v -4.5 13 0.5
v -4.5 13 -0.5
v -4.5 14 0.5
v -4.5 14 -0.5
v -3.5 14 0.5
v -3.5 14 -0.5
v -3.5 15 0.5
v -3.5 15 -0.5
v -3.5 16 0.5
v -3.5 16 -0.5
v -2.5 16 0.5
v -2.5 16 -0.5
v -2.5 17 0.5
v -2.5 17 -0.5
v -2.5 18 0.5
v -2.5 18 -0.5
v -1.5 18 0.5
v -1.5 18 -0.5
v -1.5 19 0.5
v -1.5 19 -0.5
v -0.5 19 0.5
v -0.5 19 -0.5
v -0.5 20 0.5
v -0.5 20 -0.5
v -0.5 21 0.5
v -0.5 21 -0.5
v 0.5 21 0.5
v 0.5 21 -0.5
v 0.5 22 0.5
v 0.5 22 -0.5
v 0.5 23 0.5
v 0.5 23 -0.5
v 1.5 23 0.5
v 1.5 23 -0.5
v 1.5 24 0.5
v 1.5 24 -0.5
v 7.5 0 0.5
v 7.5 0 -0.5
v 7.5 7 0.5
v 7.5 7 -0.5
v 7.5 10 0.5
v 7.5 10 -0.5
v 7.5 29 0.5
v 7.5 29 -0.5
v 7.5 30 0.5
v 7.5 30 -0.5
v 11.5 7 0.5
v 11.5 7 -0.5
v 11.5 10 0.5
v 11.5 10 -0.5
v -11.5 8 0.5
v -11.5 10 0.5
v -10.5 7 0.5
v -10.5 8 0.5
v -10.5 10 0.5
v -10.5 11 0.5
v -10.5 12 0.5
v -9.5 7 0.5
v -9.5 10 0.5
v -9.5 11 0.5
v -9.5 12 0.5
v -9.5 13 0.5
v -8.5 12 0.5
v -8.5 13 0.5
v -8.5 14 0.5
v -8.5 15 0.5
v -7.5 10 0.5
v -7.5 11 0.5
v -7.5 13 0.5
v -7.5 14 0.5
v -7.5 15 0.5
v -7.5 16 0.5
v -7.5 17 0.5
v -6.5 10 0.5
v -6.5 11 0.5
v -6.5 12 0.5
v -6.5 15 0.5
v -6.5 16 0.5
v -6.5 17 0.5
v -6.5 18 0.5
v -6.5 19 0.5
v -5.5 11 0.5
v -5.5 12 0.5
v -5.5 13 0.5
v -5.5 14 0.5
v -5.5 17 0.5
v -5.5 18 0.5
v -5.5 19 0.5
v -5.5 20 0.5
v -4.5 13 0.5
v -4.5 14 0.5
v -4.5 15 0.5
v -4.5 16 0.5
v -4.5 18 0.5
v -4.5 19 0.5
v -4.5 20 0.5
v -4.5 21 0.5
v -4.5 22 0.5
v -3.5 14 0.5
v -3.5 15 0.5
v -3.5 16 0.5
v -3.5 17 0.5
v -3.5 20 0.5
v -3.5 21 0.5
v -3.5 22 0.5
v -3.5 23 0.5
v -3.5 24 0.5
v -2.5 16 0.5
v -2.5 17 0.5
v -2.5 18 0.5
v -2.5 19 0.5
v -2.5 22 0.5
v -2.5 23 0.5
v -2.5 24 0.5
v -2.5 25 0.5
v -1.5 18 0.5
v -1.5 19 0.5
v -1.5 20 0.5
v -1.5 21 0.5
v -1.5 23 0.5
v -1.5 24 0.5
v -1.5 25 0.5
v -1.5 26 0.5
v -1.5 27 0.5
v -0.5 19 0.5
v -0.5 20 0.5
v -0.5 21 0.5
v -0.5 22 0.5
v -0.5 25 0.5
v -0.5 26 0.5
v -0.5 27 0.5
v -0.5 28 0.5
v -0.5 29 0.5
v 0.5 21 0.5
v 0.5 22 0.5
v 0.5 23 0.5
v 0.5 24 0.5
v 0.5 27 0.5
v 0.5 28 0.5
v 0.5 29 0.5
v 0.5 30 0.5
v 1.5 23 0.5
v 1.5 24 0.5
v 1.5 25 0.5
v 1.5 26 0.5
v 1.5 28 0.5
v 1.5 29 0.5
v 1.5 30 0.5
v 2.5 0 0.5
v 2.5 1 0.5
v 2.5 7 0.5
v 2.5 10 0.5
v 2.5 24 0.5
v 2.5 25 0.5
v 2.5 26 0.5
v 3.5 0 0.5
v 3.5 1 0.5
v 3.5 7 0.5
v 3.5 10 0.5
v 3.5 26 0.5
v 6.5 0 0.5
v 6.5 7 0.5
v 6.5 10 0.5
v 6.5 29 0.5
v 6.5 30 0.5
v 7.5 0 0.5
v 7.5 7 0.5
v 7.5 10 0.5
v 7.5 29 0.5
v 7.5 30 0.5
v 10.5 7 0.5
v 10.5 10 0.5
v 11.5 7 0.5
v 11.5 10 0.5
v -11.5 8 -0.5
v -11.5 10 -0.5
v -10.5 7 -0.5
v -10.5 8 -0.5
v -10.5 10 -0.5
v -10.5 11 -0.5
v -10.5 12 -0.5
v -9.5 7 -0.5
v -9.5 10 -0.5
v -9.5 11 -0.5
v -9.5 12 -0.5
v -9.5 13 -0.5
v -8.5 12 -0.5
v -8.5 13 -0.5
v -8.5 14 -0.5
v -8.5 15 -0.5
v -7.5 10 -0.5
v -7.5 11 -0.5
v -7.5 13 -0.5
v -7.5 14 -0.5
v -7.5 15 -0.5
v -7.5 16 -0.5
v -7.5 17 -0.5
v -6.5 10 -0.5
v -6.5 11 -0.5
v -6.5 12 -0.5
v -6.5 15 -0.5
v -6.5 16 -0.5
v -6.5 17 -0.5
v -6.5 18 -0.5
v -6.5 19 -0.5
v -5.5 11 -0.5
v -5.5 12 -0.5
v -5.5 13 -0.5
v -5.5 14 -0.5
v -5.5 17 -0.5
v -5.5 18 -0.5
v -5.5 19 -0.5
v -5.5 20 -0.5
v -4.5 13 -0.5
v -4.5 14 -0.5
v -4.5 15 -0.5
v -4.5 16 -0.5
v -4.5 18 -0.5
v -4.5 19 -0.5
v -4.5 20 -0.5
v -4.5 21 -0.5
v -4.5 22 -0.5
v -3.5 14 -0.5
v -3.5 15 -0.5
v -3.5 16 -0.5
v -3.5 17 -0.5
v -3.5 20 -0.5
v -3.5 21 -0.5
v -3.5 22 -0.5
v -3.5 23 -0.5
v -3.5 24 -0.5
v -2.5 16 -0.5
v -2.5 17 -0.5
v -2.5 18 -0.5
v -2.5 19 -0.5
v -2.5 22 -0.5
v -2.5 23 -0.5
v -2.5 24 -0.5
v -2.5 25 -0.5
v -1.5 18 -0.5
v -1.5 19 -0.5
v -1.5 20 -0.5
v -1.5 21 -0.5
v -1.5 23 -0.5
v -1.5 24 -0.5
v -1.5 25 -0.5
v -1.5 26 -0.5
v -1.5 27 -0.5
v -0.5 19 -0.5
v -0.5 20 -0.5
v -0.5 21 -0.5
v -0.5 22 -0.5
v -0.5 25 -0.5
v -0.5 26 -0.5
v -0.5 27 -0.5
v -0.5 28 -0.5
v -0.5 29 -0.5
v 0.5 21 -0.5
v 0.5 22 -0.5
v 0.5 23 -0.5
v 0.5 24 -0.5
v 0.5 27 -0.5
v 0.5 28 -0.5
v 0.5 29 -0.5
v 0.5 30 -0.5
v 1.5 23 -0.5
v 1.5 24 -0.5
v 1.5 25 -0.5
v 1.5 26 -0.5
v 1.5 28 -0.5
v 1.5 29 -0.5
v 1.5 30 -0.5
v 2.5 0 -0.5
v 2.5 1 -0.5
v 2.5 7 -0.5
v 2.5 10 -0.5
v 2.5 24 -0.5
v 2.5 25 -0.5
v 2.5 26 -0.5
v 3.5 0 -0.5
v 3.5 1 -0.5
v 3.5 7 -0.5
v 3.5 10 -0.5
v 3.5 26 -0.5
v 6.5 0 -0.5
v 6.5 7 -0.5
v 6.5 10 -0.5
v 6.5 29 -0.5
v 6.5 30 -0.5
v 7.5 0 -0.5
v 7.5 7 -0.5
v 7.5 10 -0.5
v 7.5 29 -0.5
v 7.5 30 -0.5
v 10.5 7 -0.5
v 10.5 10 -0.5
v 11.5 7 -0.5
v 11.5 10 -0.5
v 2.5 0 0.5
v 3.5 0 0.5
v 6.5 0 0.5
v 7.5 0 0.5
v 2.5 0 -0.5
v 3.5 0 -0.5
v 6.5 0 -0.5
v 7.5 0 -0.5
v -10.5 7 0.5
v -9.5 7 0.5
v 2.5 7 0.5
v 7.5 7 0.5
v 10.5 7 0.5
v 11.5 7 0.5
v -10.5 7 -0.5
v -9.5 7 -0.5
v 2.5 7 -0.5
v 7.5 7 -0.5
v 10.5 7 -0.5
v 11.5 7 -0.5
v -11.5 8 0.5
v -10.5 8 0.5
v -11.5 8 -0.5
v -10.5 8 -0.5
v -6.5 11 0.5
v -5.5 11 0.5
v -6.5 11 -0.5
v -5.5 11 -0.5
v -5.5 13 0.5
v -4.5 13 0.5
v -5.5 13 -0.5
v -4.5 13 -0.5
v -4.5 14 0.5
v -3.5 14 0.5
v -4.5 14 -0.5
v -3.5 14 -0.5
v -3.5 16 0.5
v -2.5 16 0.5
v -3.5 16 -0.5
v -2.5 16 -0.5
v -2.5 18 0.5
v -1.5 18 0.5
v -2.5 18 -0.5
v -1.5 18 -0.5
v -1.5 19 0.5
v -0.5 19 0.5
v -1.5 19 -0.5
v -0.5 19 -0.5
v -0.5 21 0.5
v 0.5 21 0.5
v -0.5 21 -0.5
v 0.5 21 -0.5
v 0.5 23 0.5
v 1.5 23 0.5
v 0.5 23 -0.5
v 1.5 23 -0.5
v 1.5 24 0.5
v 2.5 24 0.5
v 1.5 24 -0.5
v 2.5 24 -0.5
v -11.5 10 0.5
v -10.5 10 0.5
v -6.5 10 0.5
v 2.5 10 0.5
v 7.5 10 0.5
v 10.5 10 0.5
v 11.5 10 0.5
v -11.5 10 -0.5
v -10.5 10 -0.5
v -6.5 10 -0.5
v 2.5 10 -0.5
v 7.5 10 -0.5
v 10.5 10 -0.5
v 11.5 10 -0.5
v -10.5 12 0.5
v -9.5 12 0.5
v -10.5 12 -0.5
v -9.5 12 -0.5
v -9.5 13 0.5
v -8.5 13 0.5
v -9.5 13 -0.5
v -8.5 13 -0.5
v -8.5 15 0.5
v -7.5 15 0.5
v -8.5 15 -0.5
v -7.5 15 -0.5
v -7.5 17 0.5
v -6.5 17 0.5
v -7.5 17 -0.5
v -6.5 17 -0.5
v -6.5 19 0.5
v -5.5 19 0.5
v -6.5 19 -0.5
v -5.5 19 -0.5
v -5.5 20 0.5
v -4.5 20 0.5
v -5.5 20 -0.5
v -4.5 20 -0.5
v -4.5 22 0.5
v -3.5 22 0.5
v -4.5 22 -0.5
v -3.5 22 -0.5
v -3.5 24 0.5
v -2.5 24 0.5
v -3.5 24 -0.5
v -2.5 24 -0.5
v -2.5 25 0.5
v -1.5 25 0.5
v -2.5 25 -0.5
v -1.5 25 -0.5
v -1.5 27 0.5
v -0.5 27 0.5
v -1.5 27 -0.5
v -0.5 27 -0.5
v -0.5 29 0.5
v 0.5 29 0.5
v -0.5 29 -0.5
v 0.5 29 -0.5
v 0.5 30 0.5
v 1.5 30 0.5
v 6.5 30 0.5
v 7.5 30 0.5
v 0.5 30 -0.5
v 1.5 30 -0.5
v 6.5 30 -0.5
v 7.5 30 -0.5

# faces
f 3/1/1 2/1/1 1/1/1
f 4/1/1 2/1/1 3/1/1
f 7/5/1 6/5/1 5/5/1
f 8/5/1 6/5/1 7/5/1
f 11/4/1 10/4/1 9/4/1
f 12/4/1 10/4/1 11/4/1
f 13/1/1 12/1/1 11/1/1
f 14/1/1 12/1/1 13/1/1
f 17/3/1 16/3/1 15/3/1
f 18/3/1 16/3/1 17/3/1
f 21/5/1 20/5/1 19/5/1
f 22/5/1 20/5/1 21/5/1
f 23/2/1 22/2/1 21/2/1
f 24/2/1 22/2/1 23/2/1
f 27/4/1 26/4/1 25/4/1
f 28/4/1 26/4/1 27/4/1
f 29/1/1 28/1/1 27/1/1
f 30/1/1 28/1/1 29/1/1
f 33/3/1 32/3/1 31/3/1
f 34/3/1 32/3/1 33/3/1
f 35/1/1 34/1/1 33/1/1
f 36/1/1 34/1/1 35/1/1
f 39/2/1 38/2/1 37/2/1
f 40/2/1 38/2/1 39/2/1
f 43/4/1 42/4/1 41/4/1
f 44/4/1 42/4/1 43/4/1
f 45/1/1 44/1/1 43/1/1
f 46/1/1 44/1/1 45/1/1
f 49/3/1 48/3/1 47/3/1
f 50/3/1 48/3/1 49/3/1
f 51/1/1 50/1/1 49/1/1
f 52/1/1 50/1/1 51/1/1
f 55/2/1 54/2/1 53/2/1
f 56/2/1 54/2/1 55/2/1
f 59/5/1 58/5/1 57/5/1
f 60/5/1 58/5/1 59/5/1
f 61/1/1 60/1/1 59/1/1
f 62/1/1 60/1/1 61/1/1
f 65/3/1 64/3/1 63/3/1
f 66/3/1 64/3/1 65/3/1
f 67/1/1 66/1/1 65/1/1
f 68/1/1 66/1/1 67/1/1
f 71/2/1 70/2/1 69/2/1
f 72/2/1 70/2/1 71/2/1
f 75/2/1 74/2/1 73/2/1
f 76/2/1 74/2/1 75/2/1
f 77/3/1 76/3/1 75/3/1
f 78/3/1 76/3/1 77/3/1
f 81/3/1 80/3/1 79/3/1
f 82/3/1 80/3/1 81/3/1
f 83/7/2 84/7/2 85/7/2
f 85/7/2 84/7/2 86/7/2
f 87/7/2 88/7/2 89/7/2
f 89/7/2 88/7/2 90/7/2
f 89/9/2 90/9/2 91/9/2
f 91/9/2 90/9/2 92/9/2
f 93/7/2 94/7/2 95/7/2
f 95/7/2 94/7/2 96/7/2
f 97/8/2 98/8/2 99/8/2
f 99/8/2 98/8/2 100/8/2
f 99/7/2 100/7/2 101/7/2
f 101/7/2 100/7/2 102/7/2
f 103/6/2 104/6/2 105/6/2
f 105/6/2 104/6/2 106/6/2
f 105/9/2 106/9/2 107/9/2
f 107/9/2 106/9/2 108/9/2
f 109/7/2 110/7/2 111/7/2
f 111/7/2 110/7/2 112/7/2
f 113/8/2 114/8/2 115/8/2
f 115/8/2 114/8/2 116/8/2
f 115/7/2 116/7/2 117/7/2
f 117/7/2 116/7/2 118/7/2
f 119/6/2 120/6/2 121/6/2
f 121/6/2 120/6/2 122/6/2
f 121/9/2 122/9/2 123/9/2
f 123/9/2 122/9/2 124/9/2
f 125/7/2 126/7/2 127/7/2
f 127/7/2 126/7/2 128/7/2
f 129/6/2 130/6/2 131/6/2
f 131/6/2 130/6/2 132/6/2
f 133/6/2 134/6/2 135/6/2
f 135/6/2 134/6/2 136/6/2
f 135/8/2 136/8/2 137/8/2
f 137/8/2 136/8/2 138/8/2
f 139/7/2 140/7/2 141/7/2
f 141/7/2 140/7/2 142/7/2
f 146/1/3 144/1/3 143/1/3
f 147/1/3 144/1/3 146/1/3
f 150/5/3 146/5/3 145/5/3
f 150/5/3 147/5/3 146/5/3
f 151/4/3 148/4/3 147/4/3
f 151/5/3 147/5/3 150/5/3
f 152/1/3 149/1/3 148/1/3
f 152/4/3 148/4/3 151/4/3
f 153/1/3 149/1/3 152/1/3
f 155/9/3 151/9/3 150/9/3
f 155/3/3 154/3/3 153/3/3
f 155/9/3 153/9/3 152/9/3
f 155/9/3 152/9/3 151/9/3
f 156/3/3 154/3/3 155/3/3
f 159/9/3 155/9/3 150/9/3
f 159/9/3 156/9/3 155/9/3
f 160/9/3 156/9/3 159/9/3
f 161/5/3 157/5/3 156/5/3
f 161/9/3 156/9/3 160/9/3
f 162/2/3 158/2/3 157/2/3
f 162/5/3 157/5/3 161/5/3
f 163/2/3 158/2/3 162/2/3
f 166/7/3 160/7/3 159/7/3
f 166/9/3 159/9/3 150/9/3
f 167/9/3 161/9/3 160/9/3
f 167/7/3 160/7/3 166/7/3
f 167/9/3 162/9/3 161/9/3
f 167/9/3 163/9/3 162/9/3
f 168/9/3 163/9/3 167/9/3
f 169/4/3 164/4/3 163/4/3
f 169/9/3 163/9/3 168/9/3
f 170/1/3 165/1/3 164/1/3
f 170/4/3 164/4/3 169/4/3
f 171/1/3 165/1/3 170/1/3
f 174/7/3 168/7/3 167/7/3
f 175/9/3 169/9/3 168/9/3
f 175/7/3 168/7/3 174/7/3
f 175/9/3 170/9/3 169/9/3
f 175/9/3 171/9/3 170/9/3
f 176/9/3 171/9/3 175/9/3
f 177/9/3 171/9/3 176/9/3
f 178/3/3 172/3/3 171/3/3
f 178/9/3 171/9/3 177/9/3
f 179/1/3 173/1/3 172/1/3
f 179/3/3 172/3/3 178/3/3
f 180/1/3 173/1/3 179/1/3
f 182/7/3 177/7/3 176/7/3
f 183/9/3 178/9/3 177/9/3
f 183/7/3 177/7/3 182/7/3
f 183/9/3 179/9/3 178/9/3
f 184/9/3 179/9/3 183/9/3
f 185/9/3 179/9/3 184/9/3
f 186/5/3 180/5/3 179/5/3
f 186/9/3 179/9/3 185/9/3
f 187/2/3 181/2/3 180/2/3
f 187/5/3 180/5/3 186/5/3
f 188/2/3 181/2/3 187/2/3
f 191/8/3 184/8/3 183/8/3
f 192/7/3 185/7/3 184/7/3
f 192/8/3 184/8/3 191/8/3
f 193/9/3 186/9/3 185/9/3
f 193/7/3 185/7/3 192/7/3
f 193/9/3 187/9/3 186/9/3
f 193/9/3 188/9/3 187/9/3
f 194/9/3 188/9/3 193/9/3
f 195/4/3 189/4/3 188/4/3
f 195/9/3 188/9/3 194/9/3
f 196/1/3 190/1/3 189/1/3
f 196/4/3 189/4/3 195/4/3
f 197/1/3 190/1/3 196/1/3
f 200/6/3 194/6/3 193/6/3
f 201/9/3 195/9/3 194/9/3
f 201/6/3 194/6/3 200/6/3
f 201/9/3 197/9/3 196/9/3
f 201/9/3 196/9/3 195/9/3
f 202/9/3 197/9/3 201/9/3
f 203/9/3 197/9/3 202/9/3
f 204/3/3 198/3/3 197/3/3
f 204/9/3 197/9/3 203/9/3
f 205/1/3 199/1/3 198/1/3
f 205/3/3 198/3/3 204/3/3
f 206/1/3 199/1/3 205/1/3
f 208/7/3 203/7/3 202/7/3
f 209/9/3 204/9/3 203/9/3
f 209/7/3 203/7/3 208/7/3
f 209/9/3 205/9/3 204/9/3
f 210/9/3 205/9/3 209/9/3
f 211/9/3 205/9/3 210/9/3
f 212/5/3 206/5/3 205/5/3
f 212/9/3 205/9/3 211/9/3
f 213/2/3 207/2/3 206/2/3
f 213/5/3 206/5/3 212/5/3
f 214/2/3 207/2/3 213/2/3
f 217/8/3 210/8/3 209/8/3
f 218/7/3 211/7/3 210/7/3
f 218/8/3 210/8/3 217/8/3
f 219/9/3 212/9/3 211/9/3
f 219/7/3 211/7/3 218/7/3
f 219/9/3 213/9/3 212/9/3
f 219/9/3 214/9/3 213/9/3
f 220/9/3 214/9/3 219/9/3
f 221/5/3 215/5/3 214/5/3
f 221/9/3 214/9/3 220/9/3
f 222/1/3 216/1/3 215/1/3
f 222/5/3 215/5/3 221/5/3
f 223/1/3 216/1/3 222/1/3
f 226/6/3 220/6/3 219/6/3
f 227/9/3 221/9/3 220/9/3
f 227/6/3 220/6/3 226/6/3
f 227/9/3 223/9/3 222/9/3
f 227/9/3 222/9/3 221/9/3
f 228/9/3 223/9/3 227/9/3
f 229/9/3 223/9/3 228/9/3
f 230/3/3 224/3/3 223/3/3
f 230/9/3 223/9/3 229/9/3
f 231/1/3 225/1/3 224/1/3
f 231/3/3 224/3/3 230/3/3
f 232/1/3 225/1/3 231/1/3
f 234/7/3 229/7/3 228/7/3
f 235/9/3 230/9/3 229/9/3
f 235/7/3 229/7/3 234/7/3
f 235/9/3 231/9/3 230/9/3
f 236/9/3 231/9/3 235/9/3
f 237/9/3 231/9/3 236/9/3
f 238/5/3 232/5/3 231/5/3
f 238/9/3 231/9/3 237/9/3
f 239/2/3 233/2/3 232/2/3
f 239/5/3 232/5/3 238/5/3
f 240/2/3 233/2/3 239/2/3
f 243/9/3 166/9/3 150/9/3
f 244/9/3 166/9/3 243/9/3
f 245/8/3 236/8/3 235/8/3
f 246/7/3 237/7/3 236/7/3
f 246/8/3 236/8/3 245/8/3
f 247/9/3 238/9/3 237/9/3
f 247/7/3 237/7/3 246/7/3
f 247/9/3 239/9/3 238/9/3
f 247/9/3 240/9/3 239/9/3
f 248/2/3 242/2/3 241/2/3
f 249/3/3 243/3/3 242/3/3
f 249/2/3 242/2/3 248/2/3
f 250/9/3 244/9/3 243/9/3
f 250/3/3 243/3/3 249/3/3
f 251/3/3 246/3/3 245/3/3
f 251/9/3 244/9/3 250/9/3
f 251/3/3 245/3/3 244/3/3
f 251/3/3 247/3/3 246/3/3
f 252/9/3 240/9/3 247/9/3
f 252/3/3 247/3/3 251/3/3
f 253/9/3 251/9/3 250/9/3
f 253/9/3 250/9/3 249/9/3
f 253/9/3 252/9/3 251/9/3
f 253/9/3 249/9/3 248/9/3
f 254/9/3 252/9/3 253/9/3
f 255/9/3 252/9/3 254/9/3
f 256/9/3 240/9/3 252/9/3
f 256/9/3 252/9/3 255/9/3
f 257/9/3 240/9/3 256/9/3
f 258/6/3 254/6/3 253/6/3
f 259/9/3 255/9/3 254/9/3
f 259/6/3 254/6/3 258/6/3
f 260/6/3 256/6/3 255/6/3
f 260/9/3 255/9/3 259/9/3
f 261/8/3 257/8/3 256/8/3
f 261/6/3 256/6/3 260/6/3
f 262/8/3 257/8/3 261/8/3
f 263/9/3 260/9/3 259/9/3
f 264/9/3 260/9/3 263/9/3
f 265/7/3 264/7/3 263/7/3
f 266/7/3 264/7/3 265/7/3
f 267/1/4 268/1/4 270/1/4
f 270/1/4 268/1/4 271/1/4
f 269/5/4 270/5/4 274/5/4
f 270/5/4 271/5/4 274/5/4
f 271/4/4 272/4/4 275/4/4
f 274/5/4 271/5/4 275/5/4
f 272/1/4 273/1/4 276/1/4
f 275/4/4 272/4/4 276/4/4
f 276/1/4 273/1/4 277/1/4
f 274/9/4 275/9/4 279/9/4
f 277/3/4 278/3/4 279/3/4
f 276/9/4 277/9/4 279/9/4
f 275/9/4 276/9/4 279/9/4
f 279/3/4 278/3/4 280/3/4
f 274/9/4 279/9/4 283/9/4
f 279/9/4 280/9/4 283/9/4
f 283/9/4 280/9/4 284/9/4
f 280/5/4 281/5/4 285/5/4
f 284/9/4 280/9/4 285/9/4
f 281/2/4 282/2/4 286/2/4
f 285/5/4 281/5/4 286/5/4
f 286/2/4 282/2/4 287/2/4
f 283/7/4 284/7/4 290/7/4
f 274/9/4 283/9/4 290/9/4
f 284/9/4 285/9/4 291/9/4
f 290/7/4 284/7/4 291/7/4
f 285/9/4 286/9/4 291/9/4
f 286/9/4 287/9/4 291/9/4
f 291/9/4 287/9/4 292/9/4
f 287/4/4 288/4/4 293/4/4
f 292/9/4 287/9/4 293/9/4
f 288/1/4 289/1/4 294/1/4
f 293/4/4 288/4/4 294/4/4
f 294/1/4 289/1/4 295/1/4
f 291/7/4 292/7/4 298/7/4
f 292/9/4 293/9/4 299/9/4
f 298/7/4 292/7/4 299/7/4
f 293/9/4 294/9/4 299/9/4
f 294/9/4 295/9/4 299/9/4
f 299/9/4 295/9/4 300/9/4
f 300/9/4 295/9/4 301/9/4
f 295/3/4 296/3/4 302/3/4
f 301/9/4 295/9/4 302/9/4
f 296/1/4 297/1/4 303/1/4
f 302/3/4 296/3/4 303/3/4
f 303/1/4 297/1/4 304/1/4
f 300/7/4 301/7/4 306/7/4
f 301/9/4 302/9/4 307/9/4
f 306/7/4 301/7/4 307/7/4
f 302/9/4 303/9/4 307/9/4
f 307/9/4 303/9/4 308/9/4
f 308/9/4 303/9/4 309/9/4
f 303/5/4 304/5/4 310/5/4
f 309/9/4 303/9/4 310/9/4
f 304/2/4 305/2/4 311/2/4
f 310/5/4 304/5/4 311/5/4
f 311/2/4 305/2/4 312/2/4
f 307/8/4 308/8/4 315/8/4
f 308/7/4 309/7/4 316/7/4
f 315/8/4 308/8/4 316/8/4
f 309/9/4 310/9/4 317/9/4
f 316/7/4 309/7/4 317/7/4
f 310/9/4 311/9/4 317/9/4
f 311/9/4 312/9/4 317/9/4
f 317/9/4 312/9/4 318/9/4
f 312/4/4 313/4/4 319/4/4
f 318/9/4 312/9/4 319/9/4
f 313/1/4 314/1/4 320/1/4
f 319/4/4 313/4/4 320/4/4
f 320/1/4 314/1/4 321/1/4
f 317/6/4 318/6/4 324/6/4
f 318/9/4 319/9/4 325/9/4
f 324/6/4 318/6/4 325/6/4
f 320/9/4 321/9/4 325/9/4
f 319/9/4 320/9/4 325/9/4
f 325/9/4 321/9/4 326/9/4
f 326/9/4 321/9/4 327/9/4
f 321/3/4 322/3/4 328/3/4
f 327/9/4 321/9/4 328/9/4
f 322/1/4 323/1/4 329/1/4
f 328/3/4 322/3/4 329/3/4
f 329/1/4 323/1/4 330/1/4
f 326/7/4 327/7/4 332/7/4
f 327/9/4 328/9/4 333/9/4
f 332/7/4 327/7/4 333/7/4
f 328/9/4 329/9/4 333/9/4
f 333/9/4 329/9/4 334/9/4
f 334/9/4 329/9/4 335/9/4
f 329/5/4 330/5/4 336/5/4
f 335/9/4 329/9/4 336/9/4
f 330/2/4 331/2/4 337/2/4
f 336/5/4 330/5/4 337/5/4
f 337/2/4 331/2/4 338/2/4
f 333/8/4 334/8/4 341/8/4
f 334/7/4 335/7/4 342/7/4
f 341/8/4 334/8/4 342/8/4
f 335/9/4 336/9/4 343/9/4
f 342/7/4 335/7/4 343/7/4
f 336/9/4 337/9/4 343/9/4
f 337/9/4 338/9/4 343/9/4
f 343/9/4 338/9/4 344/9/4
f 338/5/4 339/5/4 345/5/4
f 344/9/4 338/9/4 345/9/4
f 339/1/4 340/1/4 346/1/4
f 345/5/4 339/5/4 346/5/4
f 346/1/4 340/1/4 347/1/4
f 343/6/4 344/6/4 350/6/4
f 344/9/4 345/9/4 351/9/4
f 350/6/4 344/6/4 351/6/4
f 346/9/4 347/9/4 351/9/4
f 345/9/4 346/9/4 351/9/4
f 351/9/4 347/9/4 352/9/4
f 352/9/4 347/9/4 353/9/4
f 347/3/4 348/3/4 354/3/4
f 353/9/4 347/9/4 354/9/4
f 348/1/4 349/1/4 355/1/4
f 354/3/4 348/3/4 355/3/4
f 355/1/4 349/1/4 356/1/4
f 352/7/4 353/7/4 358/7/4
f 353/9/4 354/9/4 359/9/4
f 358/7/4 353/7/4 359/7/4
f 354/9/4 355/9/4 359/9/4
f 359/9/4 355/9/4 360/9/4
f 360/9/4 355/9/4 361/9/4
f 355/5/4 356/5/4 362/5/4
f 361/9/4 355/9/4 362/9/4
f 356/2/4 357/2/4 363/2/4
f 362/5/4 356/5/4 363/5/4
f 363/2/4 357/2/4 364/2/4
f 274/9/4 290/9/4 367/9/4
f 367/9/4 290/9/4 368/9/4
f 359/8/4 360/8/4 369/8/4
f 360/7/4 361/7/4 370/7/4
f 369/8/4 360/8/4 370/8/4
f 361/9/4 362/9/4 371/9/4
f 370/7/4 361/7/4 371/7/4
f 362/9/4 363/9/4 371/9/4
f 363/9/4 364/9/4 371/9/4
f 365/2/4 366/2/4 372/2/4
f 366/3/4 367/3/4 373/3/4
f 372/2/4 366/2/4 373/2/4
f 367/9/4 368/9/4 374/9/4
f 373/3/4 367/3/4 374/3/4
f 369/3/4 370/3/4 375/3/4
f 374/9/4 368/9/4 375/9/4
f 368/3/4 369/3/4 375/3/4
f 370/3/4 371/3/4 375/3/4
f 371/9/4 364/9/4 376/9/4
f 375/3/4 371/3/4 376/3/4
f 374/9/4 375/9/4 377/9/4
f 373/9/4 374/9/4 377/9/4
f 375/9/4 376/9/4 377/9/4
f 372/9/4 373/9/4 377/9/4
f 377/9/4 376/9/4 378/9/4
f 378/9/4 376/9/4 379/9/4
f 376/9/4 364/9/4 380/9/4
f 379/9/4 376/9/4 380/9/4
f 380/9/4 364/9/4 381/9/4
f 377/6/4 378/6/4 382/6/4
f 378/9/4 379/9/4 383/9/4
f 382/6/4 378/6/4 383/6/4
f 379/6/4 380/6/4 384/6/4
f 383/9/4 379/9/4 384/9/4
f 380/8/4 381/8/4 385/8/4
f 384/6/4 380/6/4 385/6/4
f 385/8/4 381/8/4 386/8/4
f 383/9/4 384/9/4 387/9/4
f 387/9/4 384/9/4 388/9/4
f 387/7/4 388/7/4 389/7/4
f 389/7/4 388/7/4 390/7/4
f 395/2/5 392/2/5 391/2/5
f 396/9/5 393/9/5 392/9/5
f 396/2/5 392/2/5 395/2/5
f 397/6/5 394/6/5 393/6/5
f 397/9/5 393/9/5 396/9/5
f 398/6/5 394/6/5 397/6/5
f 405/5/5 400/5/5 399/5/5
f 406/9/5 401/9/5 400/9/5
f 406/5/5 400/5/5 405/5/5
f 407/9/5 401/9/5 406/9/5
f 408/9/5 403/9/5 402/9/5
f 409/7/5 404/7/5 403/7/5
f 409/9/5 403/9/5 408/9/5
f 410/7/5 404/7/5 409/7/5
f 413/1/5 412/1/5 411/1/5
f 414/1/5 412/1/5 413/1/5
f 417/7/5 416/7/5 415/7/5
f 418/7/5 416/7/5 417/7/5
f 421/7/5 420/7/5 419/7/5
f 422/7/5 420/7/5 421/7/5
f 425/8/5 424/8/5 423/8/5
f 426/8/5 424/8/5 425/8/5
f 429/6/5 428/6/5 427/6/5
f 430/6/5 428/6/5 429/6/5
f 433/7/5 432/7/5 431/7/5
f 434/7/5 432/7/5 433/7/5
f 437/8/5 436/8/5 435/8/5
f 438/8/5 436/8/5 437/8/5
f 441/6/5 440/6/5 439/6/5
f 442/6/5 440/6/5 441/6/5
f 445/7/5 444/7/5 443/7/5
f 446/7/5 444/7/5 445/7/5
f 449/8/5 448/8/5 447/8/5
f 450/8/5 448/8/5 449/8/5
f 451/1/6 452/1/6 458/1/6
f 458/1/6 452/1/6 459/1/6
f 453/9/6 454/9/6 460/9/6
f 460/9/6 454/9/6 461/9/6
f 455/9/6 456/9/6 462/9/6
f 456/7/6 457/7/6 463/7/6
f 462/9/6 456/9/6 463/9/6
f 463/7/6 457/7/6 464/7/6
f 465/1/6 466/1/6 467/1/6
f 467/1/6 466/1/6 468/1/6
f 469/3/6 470/3/6 471/3/6
f 471/3/6 470/3/6 472/3/6
f 473/2/6 474/2/6 475/2/6
f 475/2/6 474/2/6 476/2/6
f 477/1/6 478/1/6 479/1/6
f 479/1/6 478/1/6 480/1/6
f 481/1/6 482/1/6 483/1/6
f 483/1/6 482/1/6 484/1/6
f 485/2/6 486/2/6 487/2/6
f 487/2/6 486/2/6 488/2/6
f 489/1/6 490/1/6 491/1/6
f 491/1/6 490/1/6 492/1/6
f 493/1/6 494/1/6 495/1/6
f 495/1/6 494/1/6 496/1/6
f 497/2/6 498/2/6 499/2/6
f 499/2/6 498/2/6 500/2/6
f 501/1/6 502/1/6 503/1/6
f 503/1/6 502/1/6 504/1/6
f 505/1/6 506/1/6 507/1/6
f 507/1/6 506/1/6 508/1/6
f 509/2/6 510/2/6 513/2/6
f 510/9/6 511/9/6 514/9/6
f 513/2/6 510/2/6 514/2/6
f 511/8/6 512/8/6 515/8/6
f 514/9/6 511/9/6 515/9/6
f 515/8/6 512/8/6 516/8/6
