# MagicaVoxel @ Ephtracy

# material
mtllib 5.mtl
usemtl palette

# normals
vn -1 0 0
vn 1 0 0
vn 0 0 1
vn 0 0 -1
vn 0 -1 0
vn 0 1 0

# texcoords
vt 0.00976563 0.5
vt 0.0136719 0.5
vt 0.0214844 0.5
vt 0.0292969 0.5
vt 0.0917969 0.5
vt 0.927734 0.5
vt 0.931641 0.5
vt 0.974609 0.5
vt 0.994141 0.5

# verts
v -10 1 0.5
v -10 1 -0.5
v -10 2 0.5
v -10 2 -0.5
v -10 5 0.5
v -10 5 -0.5
v -9 16 0.5
v -9 16 -0.5
v -9 29 0.5
v -9 29 -0.5
v -8 15 0.5
v -8 15 -0.5
v -8 16 0.5
v -8 16 -0.5
v -8 29 0.5
v -8 29 -0.5
v -8 30 0.5
v -8 30 -0.5
v -7 0 0.5
v -7 0 -0.5
v -7 1 0.5
v -7 1 -0.5
v 1 3 0.5
v 1 3 -0.5
v 1 4 0.5
v 1 4 -0.5
v 1 14 0.5
v 1 14 -0.5
v 1 15 0.5
v 1 15 -0.5
v 3 4 0.5
v 3 4 -0.5
v 3 5 0.5
v 3 5 -0.5
v 3 13 0.5
v 3 13 -0.5
v 3 14 0.5
v 3 14 -0.5
v 4 5 0.5
v 4 5 -0.5
v 4 6 0.5
v 4 6 -0.5
v 4 7 0.5
v 4 7 -0.5
v 4 11 0.5
v 4 11 -0.5
v 4 12 0.5
v 4 12 -0.5
v 4 13 0.5
v 4 13 -0.5
v 5 7 0.5
v 5 7 -0.5
v 5 9 0.5
v 5 9 -0.5
v 5 10 0.5
v 5 10 -0.5
v 5 11 0.5
v 5 11 -0.5
v -8 4 0.5
v -8 4 -0.5
v -8 5 0.5
v -8 5 -0.5
v -5 3 0.5
v -5 3 -0.5
v -5 4 0.5
v -5 4 -0.5
v -4 18 0.5
v -4 18 -0.5
v -4 27 0.5
v -4 27 -0.5
v 2 0 0.5
v 2 0 -0.5
v 2 1 0.5
v 2 1 -0.5
v 4 17 0.5
v 4 17 -0.5
v 4 18 0.5
v 4 18 -0.5
v 5 1 0.5
v 5 1 -0.5
v 5 2 0.5
v 5 2 -0.5
v 6 2 0.5
v 6 2 -0.5
v 6 3 0.5
v 6 3 -0.5
v 6 16 0.5
v 6 16 -0.5
v 6 17 0.5
v 6 17 -0.5
v 7 15 0.5
v 7 15 -0.5
v 7 16 0.5
v 7 16 -0.5
v 8 3 0.5
v 8 3 -0.5
v 8 4 0.5
v 8 4 -0.5
v 8 5 0.5
v 8 5 -0.5
v 8 14 0.5
v 8 14 -0.5
v 8 15 0.5
v 8 15 -0.5
v 8 27 0.5
v 8 27 -0.5
v 8 28 0.5
v 8 28 -0.5
v 8 29 0.5
v 8 29 -0.5
v 8 30 0.5
v 8 30 -0.5
v 9 5 0.5
v 9 5 -0.5
v 9 6 0.5
v 9 6 -0.5
v 9 7 0.5
v 9 7 -0.5
v 9 8 0.5
v 9 8 -0.5
v 9 11 0.5
v 9 11 -0.5
v 9 12 0.5
v 9 12 -0.5
v 9 13 0.5
v 9 13 -0.5
v 9 14 0.5
v 9 14 -0.5
v 10 8 0.5
v 10 8 -0.5
v 10 11 0.5
v 10 11 -0.5
v -10 1 0.5
v -10 2 0.5
v -10 5 0.5
v -9 1 0.5
v -9 2 0.5
v -9 4 0.5
v -9 5 0.5
v -9 16 0.5
v -9 29 0.5
v -8 1 0.5
v -8 2 0.5
v -8 4 0.5
v -8 5 0.5
v -8 15 0.5
v -8 16 0.5
v -8 29 0.5
v -8 30 0.5
v -7 0 0.5
v -7 1 0.5
v -7 15 0.5
v -7 29 0.5
v -7 30 0.5
v -6 0 0.5
v -6 1 0.5
v -6 3 0.5
v -6 4 0.5
v -5 3 0.5
v -5 4 0.5
v -5 18 0.5
v -5 27 0.5
v -4 18 0.5
v -4 27 0.5
v 1 3 0.5
v 1 4 0.5
v 1 14 0.5
v 1 15 0.5
v 2 0 0.5
v 2 1 0.5
v 2 3 0.5
v 2 4 0.5
v 2 14 0.5
v 2 15 0.5
v 3 4 0.5
v 3 5 0.5
v 3 13 0.5
v 3 14 0.5
v 3 17 0.5
v 3 18 0.5
v 4 1 0.5
v 4 2 0.5
v 4 4 0.5
v 4 5 0.5
v 4 6 0.5
v 4 7 0.5
v 4 11 0.5
v 4 12 0.5
v 4 13 0.5
v 4 14 0.5
v 4 17 0.5
v 4 18 0.5
v 5 1 0.5
v 5 2 0.5
v 5 5 0.5
v 5 6 0.5
v 5 7 0.5
v 5 9 0.5
v 5 10 0.5
v 5 11 0.5
v 5 12 0.5
v 5 13 0.5
v 5 16 0.5
v 5 17 0.5
v 6 2 0.5
v 6 3 0.5
v 6 7 0.5
v 6 9 0.5
v 6 10 0.5
v 6 12 0.5
v 6 15 0.5
v 6 16 0.5
v 6 17 0.5
v 7 3 0.5
v 7 4 0.5
v 7 5 0.5
v 7 14 0.5
v 7 15 0.5
v 7 16 0.5
v 7 27 0.5
v 7 28 0.5
v 7 29 0.5
v 7 30 0.5
v 8 3 0.5
v 8 4 0.5
v 8 5 0.5
v 8 6 0.5
v 8 7 0.5
v 8 12 0.5
v 8 13 0.5
v 8 14 0.5
v 8 15 0.5
v 8 27 0.5
v 8 28 0.5
v 8 29 0.5
v 8 30 0.5
v 9 5 0.5
v 9 6 0.5
v 9 7 0.5
v 9 8 0.5
v 9 11 0.5
v 9 12 0.5
v 9 13 0.5
v 9 14 0.5
v 10 8 0.5
v 10 11 0.5
v -10 1 -0.5
v -10 2 -0.5
v -10 5 -0.5
v -9 1 -0.5
v -9 2 -0.5
v -9 4 -0.5
v -9 5 -0.5
v -9 16 -0.5
v -9 29 -0.5
v -8 1 -0.5
v -8 2 -0.5
v -8 4 -0.5
v -8 5 -0.5
v -8 15 -0.5
v -8 16 -0.5
v -8 29 -0.5
v -8 30 -0.5
v -7 0 -0.5
v -7 1 -0.5
v -7 15 -0.5
v -7 29 -0.5
v -7 30 -0.5
v -6 0 -0.5
v -6 1 -0.5
v -6 3 -0.5
v -6 4 -0.5
v -5 3 -0.5
v -5 4 -0.5
v -5 18 -0.5
v -5 27 -0.5
v -4 18 -0.5
v -4 27 -0.5
v 1 3 -0.5
v 1 4 -0.5
v 1 14 -0.5
v 1 15 -0.5
v 2 0 -0.5
v 2 1 -0.5
v 2 3 -0.5
v 2 4 -0.5
v 2 14 -0.5
v 2 15 -0.5
v 3 4 -0.5
v 3 5 -0.5
v 3 13 -0.5
v 3 14 -0.5
v 3 17 -0.5
v 3 18 -0.5
v 4 1 -0.5
v 4 2 -0.5
v 4 4 -0.5
v 4 5 -0.5
v 4 6 -0.5
v 4 7 -0.5
v 4 11 -0.5
v 4 12 -0.5
v 4 13 -0.5
v 4 14 -0.5
v 4 17 -0.5
v 4 18 -0.5
v 5 1 -0.5
v 5 2 -0.5
v 5 5 -0.5
v 5 6 -0.5
v 5 7 -0.5
v 5 9 -0.5
v 5 10 -0.5
v 5 11 -0.5
v 5 12 -0.5
v 5 13 -0.5
v 5 16 -0.5
v 5 17 -0.5
v 6 2 -0.5
v 6 3 -0.5
v 6 7 -0.5
v 6 9 -0.5
v 6 10 -0.5
v 6 12 -0.5
v 6 15 -0.5
v 6 16 -0.5
v 6 17 -0.5
v 7 3 -0.5
v 7 4 -0.5
v 7 5 -0.5
v 7 14 -0.5
v 7 15 -0.5
v 7 16 -0.5
v 7 27 -0.5
v 7 28 -0.5
v 7 29 -0.5
v 7 30 -0.5
v 8 3 -0.5
v 8 4 -0.5
v 8 5 -0.5
v 8 6 -0.5
v 8 7 -0.5
v 8 12 -0.5
v 8 13 -0.5
v 8 14 -0.5
v 8 15 -0.5
v 8 27 -0.5
v 8 28 -0.5
v 8 29 -0.5
v 8 30 -0.5
v 9 5 -0.5
v 9 6 -0.5
v 9 7 -0.5
v 9 8 -0.5
v 9 11 -0.5
v 9 12 -0.5
v 9 13 -0.5
v 9 14 -0.5
v 10 8 -0.5
v 10 11 -0.5
v -7 0 0.5
v -6 0 0.5
v 2 0 0.5
v -7 0 -0.5
v -6 0 -0.5
v 2 0 -0.5
v -10 1 0.5
v -9 1 0.5
v -8 1 0.5
v -7 1 0.5
v 2 1 0.5
v 4 1 0.5
v 5 1 0.5
v -10 1 -0.5
v -9 1 -0.5
v -8 1 -0.5
v -7 1 -0.5
v 2 1 -0.5
v 4 1 -0.5
v 5 1 -0.5
v 5 2 0.5
v 6 2 0.5
v 5 2 -0.5
v 6 2 -0.5
v 6 3 0.5
v 7 3 0.5
v 8 3 0.5
v 6 3 -0.5
v 7 3 -0.5
v 8 3 -0.5
v 8 5 0.5
v 9 5 0.5
v 8 5 -0.5
v 9 5 -0.5
v 9 8 0.5
v 10 8 0.5
v 9 8 -0.5
v 10 8 -0.5
v 4 11 0.5
v 5 11 0.5
v 4 11 -0.5
v 5 11 -0.5
v 3 13 0.5
v 4 13 0.5
v 3 13 -0.5
v 4 13 -0.5
v 1 14 0.5
v 2 14 0.5
v 3 14 0.5
v 1 14 -0.5
v 2 14 -0.5
v 3 14 -0.5
v -8 15 0.5
v -7 15 0.5
v 1 15 0.5
v -8 15 -0.5
v -7 15 -0.5
v 1 15 -0.5
v -9 16 0.5
v -8 16 0.5
v -9 16 -0.5
v -8 16 -0.5
v -4 27 0.5
v 7 27 0.5
v 8 27 0.5
v -4 27 -0.5
v 7 27 -0.5
v 8 27 -0.5
v -5 3 0.5
v 1 3 0.5
v -5 3 -0.5
v 1 3 -0.5
v -8 4 0.5
v -6 4 0.5
v -5 4 0.5
v 1 4 0.5
v 2 4 0.5
v 3 4 0.5
v -8 4 -0.5
v -6 4 -0.5
v -5 4 -0.5
v 1 4 -0.5
v 2 4 -0.5
v 3 4 -0.5
v -10 5 0.5
v -9 5 0.5
v -8 5 0.5
v 3 5 0.5
v 4 5 0.5
v -10 5 -0.5
v -9 5 -0.5
v -8 5 -0.5
v 3 5 -0.5
v 4 5 -0.5
v 4 7 0.5
v 5 7 0.5
v 4 7 -0.5
v 5 7 -0.5
v 9 11 0.5
v 10 11 0.5
v 9 11 -0.5
v 10 11 -0.5
v 8 14 0.5
v 9 14 0.5
v 8 14 -0.5
v 9 14 -0.5
v 7 15 0.5
v 8 15 0.5
v 7 15 -0.5
v 8 15 -0.5
v 6 16 0.5
v 7 16 0.5
v 6 16 -0.5
v 7 16 -0.5
v 4 17 0.5
v 5 17 0.5
v 6 17 0.5
v 4 17 -0.5
v 5 17 -0.5
v 6 17 -0.5
v -4 18 0.5
v 3 18 0.5
v 4 18 0.5
v -4 18 -0.5
v 3 18 -0.5
v 4 18 -0.5
v -9 29 0.5
v -8 29 0.5
v -9 29 -0.5
v -8 29 -0.5
v -8 30 0.5
v -7 30 0.5
v 7 30 0.5
v 8 30 0.5
v -8 30 -0.5
v -7 30 -0.5
v 7 30 -0.5
v 8 30 -0.5

# faces
f 3/1/1 2/1/1 1/1/1
f 4/1/1 2/1/1 3/1/1
f 5/4/1 4/4/1 3/4/1
f 6/4/1 4/4/1 5/4/1
f 9/1/1 8/1/1 7/1/1
f 10/1/1 8/1/1 9/1/1
f 13/5/1 12/5/1 11/5/1
f 14/5/1 12/5/1 13/5/1
f 17/4/1 16/4/1 15/4/1
f 18/4/1 16/4/1 17/4/1
f 21/1/1 20/1/1 19/1/1
f 22/1/1 20/1/1 21/1/1
f 25/4/1 24/4/1 23/4/1
f 26/4/1 24/4/1 25/4/1
f 29/2/1 28/2/1 27/2/1
f 30/2/1 28/2/1 29/2/1
f 33/5/1 32/5/1 31/5/1
f 34/5/1 32/5/1 33/5/1
f 37/3/1 36/3/1 35/3/1
f 38/3/1 36/3/1 37/3/1
f 41/5/1 40/5/1 39/5/1
f 42/5/1 40/5/1 41/5/1
f 43/1/1 42/1/1 41/1/1
f 44/1/1 42/1/1 43/1/1
f 47/1/1 46/1/1 45/1/1
f 48/1/1 46/1/1 47/1/1
f 49/3/1 48/3/1 47/3/1
f 50/3/1 48/3/1 49/3/1
f 53/5/1 52/5/1 51/5/1
f 54/5/1 52/5/1 53/5/1
f 55/4/1 54/4/1 53/4/1
f 56/4/1 54/4/1 55/4/1
f 57/5/1 56/5/1 55/5/1
f 58/5/1 56/5/1 57/5/1
f 59/7/2 60/7/2 61/7/2
f 61/7/2 60/7/2 62/7/2
f 63/6/2 64/6/2 65/6/2
f 65/6/2 64/6/2 66/6/2
f 67/6/2 68/6/2 69/6/2
f 69/6/2 68/6/2 70/6/2
f 71/9/2 72/9/2 73/9/2
f 73/9/2 72/9/2 74/9/2
f 75/8/2 76/8/2 77/8/2
f 77/8/2 76/8/2 78/8/2
f 79/7/2 80/7/2 81/7/2
f 81/7/2 80/7/2 82/7/2
f 83/9/2 84/9/2 85/9/2
f 85/9/2 84/9/2 86/9/2
f 87/7/2 88/7/2 89/7/2
f 89/7/2 88/7/2 90/7/2
f 91/7/2 92/7/2 93/7/2
f 93/7/2 92/7/2 94/7/2
f 95/8/2 96/8/2 97/8/2
f 97/8/2 96/8/2 98/8/2
f 97/7/2 98/7/2 99/7/2
f 99/7/2 98/7/2 100/7/2
f 101/7/2 102/7/2 103/7/2
f 103/7/2 102/7/2 104/7/2
f 105/8/2 106/8/2 107/8/2
f 107/8/2 106/8/2 108/8/2
f 107/6/2 108/6/2 109/6/2
f 109/6/2 108/6/2 110/6/2
f 109/8/2 110/8/2 111/8/2
f 111/8/2 110/8/2 112/8/2
f 113/6/2 114/6/2 115/6/2
f 115/6/2 114/6/2 116/6/2
f 115/7/2 116/7/2 117/7/2
f 117/7/2 116/7/2 118/7/2
f 117/9/2 118/9/2 119/9/2
f 119/9/2 118/9/2 120/9/2
f 121/9/2 122/9/2 123/9/2
f 123/9/2 122/9/2 124/9/2
f 123/7/2 124/7/2 125/7/2
f 125/7/2 124/7/2 126/7/2
f 125/6/2 126/6/2 127/6/2
f 127/6/2 126/6/2 128/6/2
f 129/8/2 130/8/2 131/8/2
f 131/8/2 130/8/2 132/8/2
f 136/1/3 134/1/3 133/1/3
f 137/4/3 135/4/3 134/4/3
f 137/1/3 134/1/3 136/1/3
f 138/4/3 135/4/3 137/4/3
f 139/4/3 135/4/3 138/4/3
f 142/5/3 137/5/3 136/5/3
f 143/9/3 138/9/3 137/9/3
f 143/5/3 137/5/3 142/5/3
f 144/7/3 139/7/3 138/7/3
f 144/9/3 138/9/3 143/9/3
f 145/7/3 139/7/3 144/7/3
f 147/1/3 141/1/3 140/1/3
f 148/1/3 141/1/3 147/1/3
f 151/9/3 143/9/3 142/9/3
f 151/9/3 144/9/3 143/9/3
f 152/5/3 148/5/3 147/5/3
f 152/5/3 147/5/3 146/5/3
f 153/4/3 149/4/3 148/4/3
f 153/5/3 148/5/3 152/5/3
f 154/4/3 149/4/3 153/4/3
f 155/1/3 151/1/3 150/1/3
f 156/9/3 144/9/3 151/9/3
f 156/1/3 151/1/3 155/1/3
f 157/9/3 144/9/3 156/9/3
f 158/9/3 144/9/3 157/9/3
f 159/9/3 156/9/3 155/9/3
f 159/9/3 157/9/3 156/9/3
f 159/6/3 158/6/3 157/6/3
f 160/6/3 158/6/3 159/6/3
f 161/9/3 153/9/3 152/9/3
f 161/9/3 154/9/3 153/9/3
f 162/9/3 154/9/3 161/9/3
f 163/9/3 161/9/3 152/9/3
f 163/6/3 162/6/3 161/6/3
f 164/9/3 154/9/3 162/9/3
f 164/6/3 162/6/3 163/6/3
f 165/9/3 159/9/3 155/9/3
f 168/9/3 163/9/3 152/9/3
f 169/9/3 165/9/3 155/9/3
f 170/9/3 165/9/3 169/9/3
f 171/4/3 166/4/3 165/4/3
f 171/9/3 165/9/3 170/9/3
f 172/4/3 166/4/3 171/4/3
f 173/2/3 168/2/3 167/2/3
f 174/9/3 163/9/3 168/9/3
f 174/2/3 168/2/3 173/2/3
f 175/9/3 172/9/3 171/9/3
f 175/9/3 171/9/3 170/9/3
f 178/9/3 174/9/3 173/9/3
f 179/9/3 163/9/3 174/9/3
f 179/9/3 174/9/3 178/9/3
f 180/9/3 163/9/3 179/9/3
f 181/9/3 175/9/3 170/9/3
f 182/9/3 175/9/3 181/9/3
f 183/5/3 176/5/3 175/5/3
f 183/9/3 175/9/3 182/9/3
f 184/5/3 176/5/3 183/5/3
f 189/3/3 178/3/3 177/3/3
f 190/9/3 179/9/3 178/9/3
f 190/3/3 178/3/3 189/3/3
f 191/8/3 180/8/3 179/8/3
f 191/9/3 179/9/3 190/9/3
f 192/8/3 180/8/3 191/8/3
f 193/7/3 182/7/3 181/7/3
f 194/9/3 183/9/3 182/9/3
f 194/7/3 182/7/3 193/7/3
f 194/9/3 184/9/3 183/9/3
f 195/5/3 185/5/3 184/5/3
f 195/9/3 184/9/3 194/9/3
f 196/1/3 186/1/3 185/1/3
f 196/5/3 185/5/3 195/5/3
f 197/1/3 186/1/3 196/1/3
f 200/1/3 188/1/3 187/1/3
f 201/3/3 189/3/3 188/3/3
f 201/1/3 188/1/3 200/1/3
f 202/9/3 190/9/3 189/9/3
f 202/3/3 189/3/3 201/3/3
f 202/9/3 191/9/3 190/9/3
f 203/9/3 191/9/3 202/9/3
f 204/9/3 191/9/3 203/9/3
f 205/9/3 195/9/3 194/9/3
f 205/9/3 196/9/3 195/9/3
f 205/9/3 197/9/3 196/9/3
f 206/9/3 197/9/3 205/9/3
f 207/5/3 198/5/3 197/5/3
f 207/9/3 197/9/3 206/9/3
f 208/4/3 199/4/3 198/4/3
f 208/5/3 198/5/3 207/5/3
f 209/5/3 200/5/3 199/5/3
f 209/4/3 199/4/3 208/4/3
f 209/5/3 201/5/3 200/5/3
f 210/9/3 203/9/3 202/9/3
f 210/5/3 201/5/3 209/5/3
f 210/9/3 202/9/3 201/9/3
f 211/9/3 203/9/3 210/9/3
f 212/7/3 204/7/3 203/7/3
f 212/9/3 203/9/3 211/9/3
f 213/7/3 204/7/3 212/7/3
f 214/9/3 207/9/3 206/9/3
f 214/9/3 208/9/3 207/9/3
f 214/9/3 211/9/3 210/9/3
f 214/9/3 210/9/3 209/9/3
f 214/9/3 209/9/3 208/9/3
f 215/9/3 211/9/3 214/9/3
f 216/9/3 211/9/3 215/9/3
f 217/9/3 211/9/3 216/9/3
f 218/7/3 212/7/3 211/7/3
f 218/9/3 211/9/3 217/9/3
f 219/7/3 212/7/3 218/7/3
f 220/9/3 154/9/3 164/9/3
f 221/9/3 154/9/3 220/9/3
f 222/9/3 154/9/3 221/9/3
f 223/9/3 154/9/3 222/9/3
f 224/8/3 215/8/3 214/8/3
f 225/7/3 216/7/3 215/7/3
f 225/8/3 215/8/3 224/8/3
f 226/9/3 217/9/3 216/9/3
f 226/7/3 216/7/3 225/7/3
f 227/9/3 217/9/3 226/9/3
f 228/9/3 217/9/3 227/9/3
f 229/9/3 217/9/3 228/9/3
f 230/9/3 217/9/3 229/9/3
f 231/7/3 218/7/3 217/7/3
f 231/9/3 217/9/3 230/9/3
f 232/7/3 218/7/3 231/7/3
f 233/8/3 221/8/3 220/8/3
f 234/6/3 222/6/3 221/6/3
f 234/8/3 221/8/3 233/8/3
f 235/8/3 223/8/3 222/8/3
f 235/6/3 222/6/3 234/6/3
f 236/8/3 223/8/3 235/8/3
f 237/6/3 227/6/3 226/6/3
f 238/7/3 228/7/3 227/7/3
f 238/6/3 227/6/3 237/6/3
f 239/9/3 229/9/3 228/9/3
f 239/7/3 228/7/3 238/7/3
f 240/9/3 229/9/3 239/9/3
f 241/9/3 229/9/3 240/9/3
f 242/7/3 230/7/3 229/7/3
f 242/9/3 229/9/3 241/9/3
f 243/6/3 231/6/3 230/6/3
f 243/7/3 230/7/3 242/7/3
f 244/6/3 231/6/3 243/6/3
f 245/8/3 241/8/3 240/8/3
f 246/8/3 241/8/3 245/8/3
f 247/1/4 248/1/4 250/1/4
f 248/4/4 249/4/4 251/4/4
f 250/1/4 248/1/4 251/1/4
f 251/4/4 249/4/4 252/4/4
f 252/4/4 249/4/4 253/4/4
f 250/5/4 251/5/4 256/5/4
f 251/9/4 252/9/4 257/9/4
f 256/5/4 251/5/4 257/5/4
f 252/7/4 253/7/4 258/7/4
f 257/9/4 252/9/4 258/9/4
f 258/7/4 253/7/4 259/7/4
f 254/1/4 255/1/4 261/1/4
f 261/1/4 255/1/4 262/1/4
f 256/9/4 257/9/4 265/9/4
f 257/9/4 258/9/4 265/9/4
f 261/5/4 262/5/4 266/5/4
f 260/5/4 261/5/4 266/5/4
f 262/4/4 263/4/4 267/4/4
f 266/5/4 262/5/4 267/5/4
f 267/4/4 263/4/4 268/4/4
f 264/1/4 265/1/4 269/1/4
f 265/9/4 258/9/4 270/9/4
f 269/1/4 265/1/4 270/1/4
f 270/9/4 258/9/4 271/9/4
f 271/9/4 258/9/4 272/9/4
f 269/9/4 270/9/4 273/9/4
f 270/9/4 271/9/4 273/9/4
f 271/6/4 272/6/4 273/6/4
f 273/6/4 272/6/4 274/6/4
f 266/9/4 267/9/4 275/9/4
f 267/9/4 268/9/4 275/9/4
f 275/9/4 268/9/4 276/9/4
f 266/9/4 275/9/4 277/9/4
f 275/6/4 276/6/4 277/6/4
f 276/9/4 268/9/4 278/9/4
f 277/6/4 276/6/4 278/6/4
f 269/9/4 273/9/4 279/9/4
f 266/9/4 277/9/4 282/9/4
f 269/9/4 279/9/4 283/9/4
f 283/9/4 279/9/4 284/9/4
f 279/4/4 280/4/4 285/4/4
f 284/9/4 279/9/4 285/9/4
f 285/4/4 280/4/4 286/4/4
f 281/2/4 282/2/4 287/2/4
f 282/9/4 277/9/4 288/9/4
f 287/2/4 282/2/4 288/2/4
f 285/9/4 286/9/4 289/9/4
f 284/9/4 285/9/4 289/9/4
f 287/9/4 288/9/4 292/9/4
f 288/9/4 277/9/4 293/9/4
f 292/9/4 288/9/4 293/9/4
f 293/9/4 277/9/4 294/9/4
f 284/9/4 289/9/4 295/9/4
f 295/9/4 289/9/4 296/9/4
f 289/5/4 290/5/4 297/5/4
f 296/9/4 289/9/4 297/9/4
f 297/5/4 290/5/4 298/5/4
f 291/3/4 292/3/4 303/3/4
f 292/9/4 293/9/4 304/9/4
f 303/3/4 292/3/4 304/3/4
f 293/8/4 294/8/4 305/8/4
f 304/9/4 293/9/4 305/9/4
f 305/8/4 294/8/4 306/8/4
f 295/7/4 296/7/4 307/7/4
f 296/9/4 297/9/4 308/9/4
f 307/7/4 296/7/4 308/7/4
f 297/9/4 298/9/4 308/9/4
f 298/5/4 299/5/4 309/5/4
f 308/9/4 298/9/4 309/9/4
f 299/1/4 300/1/4 310/1/4
f 309/5/4 299/5/4 310/5/4
f 310/1/4 300/1/4 311/1/4
f 301/1/4 302/1/4 314/1/4
f 302/3/4 303/3/4 315/3/4
f 314/1/4 302/1/4 315/1/4
f 303/9/4 304/9/4 316/9/4
f 315/3/4 303/3/4 316/3/4
f 304/9/4 305/9/4 316/9/4
f 316/9/4 305/9/4 317/9/4
f 317/9/4 305/9/4 318/9/4
f 308/9/4 309/9/4 319/9/4
f 309/9/4 310/9/4 319/9/4
f 310/9/4 311/9/4 319/9/4
f 319/9/4 311/9/4 320/9/4
f 311/5/4 312/5/4 321/5/4
f 320/9/4 311/9/4 321/9/4
f 312/4/4 313/4/4 322/4/4
f 321/5/4 312/5/4 322/5/4
f 313/5/4 314/5/4 323/5/4
f 322/4/4 313/4/4 323/4/4
f 314/5/4 315/5/4 323/5/4
f 316/9/4 317/9/4 324/9/4
f 323/5/4 315/5/4 324/5/4
f 315/9/4 316/9/4 324/9/4
f 324/9/4 317/9/4 325/9/4
f 317/7/4 318/7/4 326/7/4
f 325/9/4 317/9/4 326/9/4
f 326/7/4 318/7/4 327/7/4
f 320/9/4 321/9/4 328/9/4
f 321/9/4 322/9/4 328/9/4
f 324/9/4 325/9/4 328/9/4
f 323/9/4 324/9/4 328/9/4
f 322/9/4 323/9/4 328/9/4
f 328/9/4 325/9/4 329/9/4
f 329/9/4 325/9/4 330/9/4
f 330/9/4 325/9/4 331/9/4
f 325/7/4 326/7/4 332/7/4
f 331/9/4 325/9/4 332/9/4
f 332/7/4 326/7/4 333/7/4
f 278/9/4 268/9/4 334/9/4
f 334/9/4 268/9/4 335/9/4
f 335/9/4 268/9/4 336/9/4
f 336/9/4 268/9/4 337/9/4
f 328/8/4 329/8/4 338/8/4
f 329/7/4 330/7/4 339/7/4
f 338/8/4 329/8/4 339/8/4
f 330/9/4 331/9/4 340/9/4
f 339/7/4 330/7/4 340/7/4
f 340/9/4 331/9/4 341/9/4
f 341/9/4 331/9/4 342/9/4
f 342/9/4 331/9/4 343/9/4
f 343/9/4 331/9/4 344/9/4
f 331/7/4 332/7/4 345/7/4
f 344/9/4 331/9/4 345/9/4
f 345/7/4 332/7/4 346/7/4
f 334/8/4 335/8/4 347/8/4
f 335/6/4 336/6/4 348/6/4
f 347/8/4 335/8/4 348/8/4
f 336/8/4 337/8/4 349/8/4
f 348/6/4 336/6/4 349/6/4
f 349/8/4 337/8/4 350/8/4
f 340/6/4 341/6/4 351/6/4
f 341/7/4 342/7/4 352/7/4
f 351/6/4 341/6/4 352/6/4
f 342/9/4 343/9/4 353/9/4
f 352/7/4 342/7/4 353/7/4
f 353/9/4 343/9/4 354/9/4
f 354/9/4 343/9/4 355/9/4
f 343/7/4 344/7/4 356/7/4
f 355/9/4 343/9/4 356/9/4
f 344/6/4 345/6/4 357/6/4
f 356/7/4 344/7/4 357/7/4
f 357/6/4 345/6/4 358/6/4
f 354/8/4 355/8/4 359/8/4
f 359/8/4 355/8/4 360/8/4
f 364/1/5 362/1/5 361/1/5
f 365/9/5 363/9/5 362/9/5
f 365/1/5 362/1/5 364/1/5
f 366/9/5 363/9/5 365/9/5
f 374/1/5 368/1/5 367/1/5
f 375/5/5 369/5/5 368/5/5
f 375/1/5 368/1/5 374/1/5
f 376/9/5 370/9/5 369/9/5
f 376/5/5 369/5/5 375/5/5
f 377/9/5 370/9/5 376/9/5
f 378/9/5 372/9/5 371/9/5
f 379/7/5 373/7/5 372/7/5
f 379/9/5 372/9/5 378/9/5
f 380/7/5 373/7/5 379/7/5
f 383/9/5 382/9/5 381/9/5
f 384/9/5 382/9/5 383/9/5
f 388/9/5 386/9/5 385/9/5
f 389/8/5 387/8/5 386/8/5
f 389/9/5 386/9/5 388/9/5
f 390/8/5 387/8/5 389/8/5
f 393/6/5 392/6/5 391/6/5
f 394/6/5 392/6/5 393/6/5
f 397/8/5 396/8/5 395/8/5
f 398/8/5 396/8/5 397/8/5
f 401/1/5 400/1/5 399/1/5
f 402/1/5 400/1/5 401/1/5
f 405/3/5 404/3/5 403/3/5
f 406/3/5 404/3/5 405/3/5
f 410/2/5 408/2/5 407/2/5
f 411/9/5 409/9/5 408/9/5
f 411/2/5 408/2/5 410/2/5
f 412/9/5 409/9/5 411/9/5
f 416/5/5 414/5/5 413/5/5
f 417/9/5 415/9/5 414/9/5
f 417/5/5 414/5/5 416/5/5
f 418/9/5 415/9/5 417/9/5
f 421/1/5 420/1/5 419/1/5
f 422/1/5 420/1/5 421/1/5
f 426/9/5 424/9/5 423/9/5
f 427/8/5 425/8/5 424/8/5
f 427/9/5 424/9/5 426/9/5
f 428/8/5 425/8/5 427/8/5
f 429/9/6 430/9/6 431/9/6
f 431/9/6 430/9/6 432/9/6
f 433/9/6 434/9/6 439/9/6
f 434/6/6 435/6/6 440/6/6
f 439/9/6 434/9/6 440/9/6
f 440/6/6 435/6/6 441/6/6
f 436/4/6 437/4/6 442/4/6
f 437/9/6 438/9/6 443/9/6
f 442/4/6 437/4/6 443/4/6
f 443/9/6 438/9/6 444/9/6
f 445/4/6 446/4/6 450/4/6
f 446/7/6 447/7/6 451/7/6
f 450/4/6 446/4/6 451/4/6
f 451/7/6 447/7/6 452/7/6
f 448/5/6 449/5/6 453/5/6
f 453/5/6 449/5/6 454/5/6
f 455/1/6 456/1/6 457/1/6
f 457/1/6 456/1/6 458/1/6
f 459/8/6 460/8/6 461/8/6
f 461/8/6 460/8/6 462/8/6
f 463/6/6 464/6/6 465/6/6
f 465/6/6 464/6/6 466/6/6
f 467/7/6 468/7/6 469/7/6
f 469/7/6 468/7/6 470/7/6
f 471/7/6 472/7/6 473/7/6
f 473/7/6 472/7/6 474/7/6
f 475/9/6 476/9/6 478/9/6
f 476/7/6 477/7/6 479/7/6
f 478/9/6 476/9/6 479/9/6
f 479/7/6 477/7/6 480/7/6
f 481/9/6 482/9/6 484/9/6
f 482/8/6 483/8/6 485/8/6
f 484/9/6 482/9/6 485/9/6
f 485/8/6 483/8/6 486/8/6
f 487/1/6 488/1/6 489/1/6
f 489/1/6 488/1/6 490/1/6
f 491/4/6 492/4/6 495/4/6
f 492/9/6 493/9/6 496/9/6
f 495/4/6 492/4/6 496/4/6
f 493/8/6 494/8/6 497/8/6
f 496/9/6 493/9/6 497/9/6
f 497/8/6 494/8/6 498/8/6
